{
    "name-of-ship": {"type": "text", "required": false},
    "flag-state": {"type": "text", "required": false},
    "name-of-owner": {"type": "text", "required": false},
    "classification-society": {"type": "text", "required": false},
    "imo-no": {"type": "text", "required": false},
    "call-sign": {"type": "text", "required": false},
    "port-of-registry": {"type": "text", "required": false},
    "place-of-service": {"type": "text", "required": false},
    "items-fm-200": {"type": "text", "required": true},
    "items-pilot-cylinder": {"type": "text", "required": true}

  }
  