{
    "name-of-ship": {"type": "text", "required": false},
    "flag-state": {"type": "text", "required": false},
    "name-of-owner": {"type": "text", "required": false},
    "classification-society": {"type": "text", "required": false},
    "imo-no": {"type": "text", "required": false},
    "call-sign": {"type": "text", "required": false},
    "port-of-registry": {"type": "text", "required": false},
    "place-of-service": {"type": "text", "required": false},
    "manufacturer": {"type": "text", "required": false},
    "number-of-main-cylinders": {"type": "text", "required": false},
    "main-cylinders-capacity-each": {"type": "text", "required": false},
    "number-of-pilot-cylinders": {"type": "text", "required": false},
    "pilot-cylinders-capacity-each": {"type": "text", "required": false},
    "number-of-distribution-lines": {"type": "text", "required": false},
    "oldest-cylinder-pressure-test-date": {"type": "text", "required": false},
    "protected-spaces": {"type": "text", "required": false},
    "date-flexible-hoses-fitted-renewed": {"type": "text", "required": false},
    "annual-inspection": {"type": "text", "required": false},
    "5-yearly-inspection": {"type": "text", "required": false},
    "partial-inspection-repairs": {"type": "text", "required": false},
    "content-verification": {"type": "text", "required": false},
    "tem.-reading": {"type": "text", "required": false},
    "type-of-survey": {"type": "text", "required": false},
    "1item": {"type": "text", "required": false},
    "2item": {"type": "text", "required": false},
    "3item": {"type": "text", "required": false},
    "4item": {"type": "text", "required": false},
    "5item": {"type": "text", "required": false},
    "6item": {"type": "text", "required": false},
    "7item": {"type": "text", "required": false},
    "8item": {"type": "text", "required": false},
    "9item": {"type": "text", "required": false},
    "10item": {"type": "text", "required": false},
    "11item": {"type": "text", "required": false},
    "12item": {"type": "text", "required": false},
    "13item": {"type": "text", "required": false},
    "14item": {"type": "text", "required": false},
    "15item": {"type": "text", "required": false},
    "16item": {"type": "text", "required": false},
    "17item": {"type": "text", "required": false},
    "18item": {"type": "text", "required": false},
    "19item": {"type": "text", "required": false},
    "20item": {"type": "text", "required": false},
    "21item": {"type": "text", "required": false},
    "22item": {"type": "text", "required": false},
    "23item": {"type": "text", "required": false},
    "24item": {"type": "text", "required": false},
    "25item": {"type": "text", "required": false},
    "1comment": {"type": "text", "required": false},
    "2comment": {"type": "text", "required": false},
    "3comment": {"type": "text", "required": false},
    "4comment": {"type": "text", "required": false},
    "5comment": {"type": "text", "required": false},
    "6comment": {"type": "text", "required": false},
    "7comment": {"type": "text", "required": false},
    "8comment": {"type": "text", "required": false},
    "9comment": {"type": "text", "required": false},
    "10comment": {"type": "text", "required": false},
    "11comment": {"type": "text", "required": false},
    "12comment": {"type": "text", "required": false},
    "13comment": {"type": "text", "required": false},
    "14comment": {"type": "text", "required": false},
    "15comment": {"type": "text", "required": false},
    "16comment": {"type": "text", "required": false},
    "17comment": {"type": "text", "required": false},
    "18comment": {"type": "text", "required": false},
    "19comment": {"type": "text", "required": false},
    "20comment": {"type": "text", "required": false},
    "21comment": {"type": "text", "required": false},
    "22comment": {"type": "text", "required": false},
    "23comment": {"type": "text", "required": false},
    "24comment": {"type": "text", "required": false},
    "25comment": {"type": "text", "required": false}
  }
  